Data Replication
…
#Since the p-value is 0.000089, the mean percentage of time spent exploring the novel object is significantly different between control and EtOH-treated mice. The authors calculated the same p-value.

#After reorganizing some of the western blot data in a new excel sheet, I loaded it in. This particular western blot (WB) was looking at protein expression of three different tight junction proteins, ZO-1, occludin, and claudin-5, in two different brain regions. GAPDH is frequently used as a housekeeping protein to normalize the expression levels of other proteins. 
WB_data <- read_excel("data/Raw Data for Data Replication Project.xlsx", sheet = 5)
WB_data

# A tibble: 24 × 7
   ID    Region Group   `ZO-1` Occludin `Claudin-5` GAPDH
   <chr> <chr>  <chr>    <dbl>    <dbl>       <dbl> <dbl>
 1 C1    PFC    Control   551.    1499.        431.  834.
 2 C2    PFC    Control  1064.    1504.        502.  928.
 3 C3    PFC    Control  1204.    1863.        713.  918.
 4 C4    PFC    Control  1068.    1317.        629.  838.
 5 C5    PFC    Control  1301.    1544.        935.  831.
 6 C6    PFC    Control   834.    1573.       1003.  938.
 7 E1    PFC    EtOH      705.    1148.        652.  708.
 8 E2    PFC    EtOH      710.     877.        632.  670.
 9 E3    PFC    EtOH      340.     930.        605. 1040.
10 E4    PFC    EtOH      292.     872.        502.  757.
# ℹ 14 more rows

#I used the mutate function and added three additional columns to the re-organized dataset. 
WB_data <- WB_data %>%
 mutate(
  ZO1_GAPDH = `ZO-1`/GAPDH,
  Occludin_GAPDH = Occludin/GAPDH,
  Claudin5_GAPDH = `Claudin-5`/GAPDH
 )
WB_data

# A tibble: 24 × 10
   ID    Region Group `ZO-1` Occludin `Claudin-5` GAPDH ZO1_GAPDH Occludin_GAPDH
   <chr> <chr>  <chr>  <dbl>    <dbl>       <dbl> <dbl>     <dbl>          <dbl>
 1 C1    PFC    Cont…   551.    1499.        431.  834.     0.660          1.80 
 2 C2    PFC    Cont…  1064.    1504.        502.  928.     1.15           1.62 
 3 C3    PFC    Cont…  1204.    1863.        713.  918.     1.31           2.03 
 4 C4    PFC    Cont…  1068.    1317.        629.  838.     1.27           1.57 
 5 C5    PFC    Cont…  1301.    1544.        935.  831.     1.57           1.86 
 6 C6    PFC    Cont…   834.    1573.       1003.  938.     0.889          1.68 
 7 E1    PFC    EtOH    705.    1148.        652.  708.     0.995          1.62 
 8 E2    PFC    EtOH    710.     877.        632.  670.     1.06           1.31 
 9 E3    PFC    EtOH    340.     930.        605. 1040.     0.327          0.894
10 E4    PFC    EtOH    292.     872.        502.  757.     0.386          1.15 
# ℹ 14 more rows
# ℹ 1 more variable: Claudin5_GAPDH <dbl>
…
